digraph dockers {
  pythonslim [label="python-3.8-slim\nOfficial image",color=blue];
  buildtools [label="build-tools\ngcc, gfortran, ...\nBLAS, LAPACK, libxc, ..."];
  debiancalculators [label="debian-calculators\napt-get install <calculators>\nabinit, cp2k, espresso"];
  main [label="main\npip install <lots of things>\nnumpy, scipy, matplotlib, ...\nASAP, GPAW",color=red];
  fullmonty [label="full-monty\nMulti-stage build from main with everything",color=red];
  // ---------
  pythonslim -> buildtools -> debiancalculators -> main -> fullmonty;
  buildtools -> lammps;
  buildtools -> dftbplus;
  buildtools -> octopus;
  buildtools -> siesta;
  main -> kim;
  kim -> fullmonty [color=grey];
  lammps -> fullmonty [color=grey];
  dftbplus -> fullmonty [color=grey];
  octopus -> fullmonty [color=grey];
  siesta -> fullmonty [color=grey];

  { rank=same; lammps dftbplus octopus siesta}
}
